{
    "name": "Global Information",
    "numberOfRequests": {
        "total": 3274903,
        "ok": 3274903,
        "ko": 0
    },
    "minResponseTime": {
        "total": 9,
        "ok": 9,
        "ko": 0
    },
    "maxResponseTime": {
        "total": 414,
        "ok": 414,
        "ko": 0
    },
    "meanResponseTime": {
        "total": 10,
        "ok": 10,
        "ko": 0
    },
    "standardDeviation": {
        "total": 1,
        "ok": 1,
        "ko": 0
    },
    "percentiles1": {
        "total": 11,
        "ok": 11,
        "ko": 0
    },
    "percentiles2": {
        "total": 11,
        "ok": 11,
        "ko": 0
    },
    "percentiles3": {
        "total": 12,
        "ok": 12,
        "ko": 0
    },
    "percentiles4": {
        "total": 12,
        "ok": 12,
        "ko": 0
    },
    "group1": {
        "name": "t < 800 ms",
        "count": 3274903,
        "percentage": 100
    },
    "group2": {
        "name": "800 ms < t < 1200 ms",
        "count": 0,
        "percentage": 0
    },
    "group3": {
        "name": "t > 1200 ms",
        "count": 0,
        "percentage": 0
    },
    "group4": {
        "name": "failed",
        "count": 0,
        "percentage": 0
    },
    "meanNumberOfRequestsPerSecond": {
        "total": 3148.945192307692,
        "ok": 3148.945192307692,
        "ko": 0
    }
}